<?xml version="1.0" encoding="utf-8"?>
<!-- Generator: Adobe Illustrator 16.0.0, SVG Export Plug-In . SVG Version: 6.00 Build 0)  -->
<!DOCTYPE svg PUBLIC "-//W3C//DTD SVG 1.1//EN" "http://www.w3.org/Graphics/SVG/1.1/DTD/svg11.dtd">
<svg version="1.1" id="Layer_1" xmlns="http://www.w3.org/2000/svg" xmlns:xlink="http://www.w3.org/1999/xlink" x="0px" y="0px"
	 width="212.401px" height="73.081px" viewBox="0 0 212.401 73.081" enable-background="new 0 0 212.401 73.081"
	 xml:space="preserve">
<g>
	<path fill="#90B65B" d="M31.647,61.969c0.068-9.201-3.261-18.203-8.021-25.979C18.102,26.959,10.491,19,1.628,13.197
		c-1.877,4.33-1.935,9.242-1.161,13.831c1.439,8.545,5.619,16.667,10.926,23.446c4.885,6.238,11.389,12.236,19.211,14.387
		l0.443-0.443c0.037-0.135,0.098-0.273,0.184-0.404c-0.004-0.207,0.039-0.42,0.133-0.623c0.021-0.117,0.057-0.232,0.111-0.346
		c-0.041-0.285,0-0.584,0.148-0.871C31.626,62.107,31.634,62.039,31.647,61.969z"/>
	<path fill="#4F6950" d="M30.524,34.845l0.357-0.09c0.061-0.057,0.131-0.109,0.213-0.15c0.063-0.105,0.145-0.199,0.256-0.275
		c0.045-0.051,0.1-0.1,0.158-0.143c0.066-0.156,0.176-0.295,0.336-0.395c0.023-0.035,0.047-0.066,0.074-0.098
		c2.793-4.641,3.807-10.196,3.727-15.56C35.552,11.906,34.085,5.596,31.337,0c-2.248,1.629-3.75,4.1-4.733,6.656
		c-1.832,4.758-2.15,10.123-1.494,15.145C25.712,26.424,27.208,31.413,30.524,34.845z"/>
	<path fill="#64915D" d="M51.994,16.719c-5.95,3.793-10.709,9.504-14.104,15.638c-3.127,5.644-5.557,12.425-4.682,18.97l0.471,0.193
		c0.115-0.018,0.236-0.016,0.363,0.008c0.152-0.068,0.324-0.105,0.508-0.098c0.094-0.021,0.193-0.031,0.295-0.027
		c0.199-0.121,0.436-0.186,0.699-0.162c0.051-0.023,0.105-0.037,0.16-0.051c6.92-2.869,12.612-8.227,16.929-14.265
		c5.014-7.008,8.561-15.243,10.098-23.728C58.889,13.164,55.189,14.682,51.994,16.719z"/>
	<g>
		<path fill="#90B85B" d="M61.675,26.884c2.546,0,3.729,0.287,4.626,1.15c1.326,1.223,1.972,2.733,2.044,7.121h-5.63
			c-0.072-2.518-0.467-3.021-0.789-3.309c-0.215-0.216-0.538-0.359-1.686-0.359h-4.698c-1.184,0-1.47,0.107-1.721,0.359
			c-0.359,0.323-0.861,1.438-0.861,7.624c0,6.15,0.502,7.301,0.861,7.661c0.251,0.216,0.537,0.323,1.721,0.323h4.805
			c1.112,0.036,1.435-0.107,1.686-0.323c0.323-0.324,0.825-1.295,0.825-3.705v-0.719h-5.63v-4.316H68.56v3.129
			c0,5.791-0.933,7.948-2.331,9.279c-0.932,0.899-2.223,1.259-4.554,1.259h-7.71c-2.474,0-3.621-0.359-4.518-1.223
			c-1.435-1.367-2.475-3.669-2.475-11.365c0-7.732,1.04-10.034,2.475-11.364c0.896-0.863,2.044-1.223,4.518-1.223H61.675z"/>
		<path fill="#90B85B" d="M77.638,43.427c0.036,3.129,0.251,3.956,0.467,4.208c0.251,0.288,0.825,0.359,1.757,0.359h3.335
			c1.111,0,1.398-0.107,1.613-0.359c0.18-0.216,0.251-0.755,0.287-2.158h5.056c-0.036,2.949-0.358,4.46-1.328,5.431
			c-0.609,0.612-1.398,1.151-3.514,1.151h-7.316c-2.008,0-3.048-0.323-3.908-1.223c-1.291-1.295-1.793-2.842-1.793-8.668
			s0.502-7.372,1.793-8.703c0.825-0.863,1.9-1.187,3.908-1.187h6.67c2.008,0,3.084,0.323,3.908,1.187
			c1.292,1.295,1.579,2.842,1.579,8.523v0.647c0,0.575-0.144,0.791-0.789,0.791H77.638z M77.638,40.334h7.28
			c0-2.661-0.179-3.381-0.431-3.668c-0.215-0.216-0.537-0.324-1.649-0.324h-2.976c-0.933,0-1.506,0.072-1.757,0.359
			C77.854,36.953,77.674,37.564,77.638,40.334z"/>
		<path fill="#90B85B" d="M94.389,52.059v-19.78h5.487v2.625c2.546-2.302,3.335-2.661,5.164-2.661h2.403
			c1.686,0,2.761,0.359,3.514,1.115c0.825,0.791,1.147,1.834,1.147,4.747v13.954h-5.487V38.752c0-0.827-0.143-1.295-0.43-1.619
			c-0.323-0.323-0.682-0.432-1.649-0.432h-1.542c-0.933,0-1.793,0.216-3.12,0.827v14.53H94.389z"/>
		<path fill="#90B85B" d="M121.646,43.427c0.036,3.129,0.252,3.956,0.467,4.208c0.251,0.288,0.824,0.359,1.757,0.359h3.335
			c1.111,0,1.398-0.107,1.613-0.359c0.18-0.216,0.251-0.755,0.287-2.158h5.056c-0.035,2.949-0.358,4.46-1.326,5.431
			c-0.61,0.612-1.398,1.151-3.515,1.151h-7.314c-2.009,0-3.048-0.323-3.909-1.223c-1.291-1.295-1.793-2.842-1.793-8.668
			s0.502-7.372,1.793-8.703c0.825-0.863,1.9-1.187,3.909-1.187h6.669c2.009,0,3.084,0.323,3.909,1.187
			c1.291,1.295,1.577,2.842,1.577,8.523v0.647c0,0.575-0.144,0.791-0.788,0.791H121.646z M121.646,40.334h7.279
			c0-2.661-0.179-3.381-0.43-3.668c-0.216-0.216-0.538-0.324-1.649-0.324h-2.977c-0.933,0-1.506,0.072-1.757,0.359
			C121.861,36.953,121.682,37.564,121.646,40.334z"/>
		<path fill="#90B85B" d="M153.601,51.195c-0.609,0.611-1.471,0.863-2.904,0.863h-8.319c-1.757,0-2.833-0.288-3.442-0.936
			c-0.753-0.791-1.111-1.834-1.184-5.358h4.877c0.036,1.475,0.107,1.798,0.287,2.014c0.144,0.181,0.358,0.252,1.04,0.252h4.625
			c0.682,0,0.969-0.107,1.112-0.252c0.143-0.144,0.215-0.431,0.215-1.51c0-0.936-0.072-1.259-0.287-1.438
			c-0.179-0.181-0.43-0.288-1.326-0.396l-6.419-0.719c-1.542-0.18-2.295-0.468-2.869-1.043c-0.788-0.791-1.004-1.727-1.004-4.496
			c0-2.769,0.574-4.207,1.363-4.999c0.609-0.611,1.398-0.898,2.904-0.898h7.853c1.757,0,2.797,0.287,3.371,0.863
			c0.789,0.791,1.075,1.941,1.147,5.286h-4.877c-0.036-1.475-0.144-1.654-0.287-1.87c-0.144-0.18-0.395-0.251-1.04-0.251h-4.088
			c-0.645,0-0.896,0.035-1.075,0.215c-0.18,0.18-0.287,0.432-0.287,1.367c0,0.898,0.072,1.223,0.323,1.438
			c0.215,0.18,0.43,0.252,1.291,0.359l6.633,0.756c1.507,0.144,2.26,0.467,2.798,1.007c0.717,0.719,0.932,2.014,0.932,4.567
			C154.963,48.966,154.425,50.368,153.601,51.195z"/>
		<path fill="#90B85B" d="M163.035,32.278l4.375,12.731h0.322l3.622-12.731h5.737l-7.781,22.621
			c-0.789,2.194-2.116,2.985-4.77,2.985c-1.613,0-3.191-0.107-4.769-0.252v-4.172h3.693c0.502,0,0.717-0.18,0.896-0.683l0.358-1.043
			l-7.674-19.457H163.035z"/>
		<path fill="#90B85B" d="M194.846,51.195c-0.609,0.611-1.471,0.863-2.904,0.863h-8.319c-1.757,0-2.833-0.288-3.442-0.936
			c-0.753-0.791-1.111-1.834-1.184-5.358h4.877c0.036,1.475,0.107,1.798,0.287,2.014c0.144,0.181,0.358,0.252,1.04,0.252h4.625
			c0.682,0,0.969-0.107,1.112-0.252c0.143-0.144,0.215-0.431,0.215-1.51c0-0.936-0.072-1.259-0.287-1.438
			c-0.179-0.181-0.431-0.288-1.326-0.396l-6.419-0.719c-1.542-0.18-2.295-0.468-2.869-1.043c-0.788-0.791-1.004-1.727-1.004-4.496
			c0-2.769,0.574-4.207,1.363-4.999c0.609-0.611,1.398-0.898,2.904-0.898h7.853c1.757,0,2.797,0.287,3.371,0.863
			c0.789,0.791,1.075,1.941,1.147,5.286h-4.877c-0.036-1.475-0.144-1.654-0.287-1.87c-0.144-0.18-0.395-0.251-1.04-0.251h-4.088
			c-0.645,0-0.896,0.035-1.075,0.215s-0.287,0.432-0.287,1.367c0,0.898,0.072,1.223,0.323,1.438c0.215,0.18,0.43,0.252,1.29,0.359
			l6.634,0.756c1.507,0.144,2.26,0.467,2.798,1.007c0.717,0.719,0.932,2.014,0.932,4.567
			C196.208,48.966,195.67,50.368,194.846,51.195z"/>
	</g>
	<g>
		<path fill="#FFFFFF" d="M50.116,63.598c0.781,0,1.145,0.088,1.42,0.353c0.406,0.374,0.604,0.836,0.627,2.178h-1.728
			c-0.022-0.77-0.143-0.924-0.242-1.012c-0.065-0.066-0.165-0.11-0.517-0.11h-1.442c-0.363,0-0.451,0.033-0.528,0.11
			c-0.11,0.099-0.264,0.439-0.264,2.332c0,1.881,0.153,2.233,0.264,2.344c0.077,0.065,0.165,0.099,0.528,0.099h1.474
			c0.342,0.011,0.44-0.033,0.518-0.099c0.099-0.1,0.253-0.396,0.253-1.134v-0.22h-1.728v-1.32h3.477v0.957
			c0,1.771-0.286,2.432-0.715,2.839c-0.286,0.274-0.682,0.385-1.397,0.385H47.75c-0.759,0-1.111-0.11-1.386-0.374
			c-0.44-0.418-0.76-1.122-0.76-3.477c0-2.365,0.319-3.069,0.76-3.477c0.274-0.264,0.627-0.374,1.386-0.374H50.116z"/>
		<path fill="#FFFFFF" d="M53.943,65.589c0.242-0.242,0.518-0.341,1.078-0.341h2.201c0.615,0,0.979,0.11,1.198,0.341
			c0.275,0.275,0.363,0.594,0.363,1.617v4.093h-1.683v-0.693c-0.727,0.595-0.99,0.704-1.529,0.704h-0.825
			c-0.539,0-0.825-0.065-1.067-0.308c-0.209-0.209-0.353-0.562-0.353-1.354c0-0.748,0.11-1.21,0.375-1.474
			c0.274-0.275,0.627-0.407,1.716-0.407c0.583,0,1.188,0.065,1.684,0.176v-0.539c0-0.594-0.033-0.715-0.11-0.803
			c-0.077-0.066-0.188-0.089-0.44-0.089h-0.857c-0.231,0-0.353,0.022-0.418,0.089c-0.089,0.088-0.1,0.209-0.121,0.571h-1.585
			C53.581,66.183,53.69,65.831,53.943,65.589z M57.102,69.792v-1.013H55.99c-0.639,0-0.792,0.044-0.902,0.154
			s-0.132,0.242-0.132,0.517c0,0.309,0.021,0.474,0.109,0.562c0.089,0.088,0.21,0.099,0.43,0.099h0.473
			C56.32,70.11,56.551,70.078,57.102,69.792z"/>
		<path fill="#FFFFFF" d="M63.79,71.067l-0.594,0.154c-0.264,0.066-0.715,0.132-1.166,0.132c-0.572,0-0.88-0.121-1.089-0.33
			c-0.198-0.197-0.275-0.473-0.275-1.089v-3.366H59.73v-1.32h0.936v-1.507h1.694v1.507h1.441v1.32H62.36v2.915
			c0,0.265,0.021,0.353,0.077,0.418c0.055,0.044,0.165,0.066,0.439,0.066h0.913V71.067z"/>
		<path fill="#FFFFFF" d="M66.429,68.658c0.011,0.957,0.077,1.21,0.144,1.287c0.076,0.088,0.253,0.11,0.539,0.11h1.022
			c0.342,0,0.43-0.033,0.495-0.11c0.056-0.065,0.077-0.23,0.088-0.66h1.552c-0.011,0.902-0.11,1.364-0.407,1.661
			c-0.188,0.188-0.429,0.353-1.079,0.353H66.54c-0.616,0-0.936-0.099-1.199-0.374c-0.396-0.396-0.55-0.869-0.55-2.651
			s0.153-2.255,0.55-2.662c0.253-0.265,0.583-0.363,1.199-0.363h2.046c0.617,0,0.947,0.099,1.2,0.363
			c0.396,0.396,0.484,0.869,0.484,2.607v0.197c0,0.177-0.044,0.242-0.242,0.242H66.429z M66.429,67.712h2.233
			c0-0.813-0.055-1.034-0.132-1.122c-0.066-0.065-0.165-0.099-0.506-0.099h-0.913c-0.286,0-0.463,0.021-0.539,0.11
			C66.496,66.678,66.44,66.865,66.429,67.712z"/>
		<path fill="#FFFFFF" d="M72.7,65.248l0.715,4.191h0.11l0.869-3.807c0.065-0.33,0.23-0.407,0.571-0.407h0.793
			c0.33,0,0.483,0.077,0.561,0.407l0.892,3.807h0.109l0.693-4.191h1.584l-1.254,5.666c-0.088,0.33-0.231,0.407-0.562,0.407h-1.11
			c-0.342,0-0.495-0.1-0.572-0.407l-0.748-3.278h-0.1l-0.748,3.278c-0.077,0.318-0.242,0.407-0.572,0.407h-1.11
			c-0.33,0-0.474-0.077-0.562-0.407l-1.254-5.666H72.7z"/>
		<path fill="#FFFFFF" d="M80.862,65.589c0.242-0.242,0.518-0.341,1.078-0.341h2.201c0.615,0,0.979,0.11,1.198,0.341
			c0.275,0.275,0.363,0.594,0.363,1.617v4.093H84.02v-0.693c-0.727,0.595-0.99,0.704-1.529,0.704h-0.825
			c-0.539,0-0.825-0.065-1.067-0.308c-0.209-0.209-0.353-0.562-0.353-1.354c0-0.748,0.11-1.21,0.375-1.474
			c0.274-0.275,0.627-0.407,1.716-0.407c0.583,0,1.188,0.065,1.684,0.176v-0.539c0-0.594-0.033-0.715-0.11-0.803
			c-0.077-0.066-0.188-0.089-0.44-0.089h-0.857c-0.231,0-0.353,0.022-0.418,0.089c-0.089,0.088-0.1,0.209-0.121,0.571h-1.585
			C80.5,66.183,80.609,65.831,80.862,65.589z M84.02,69.792v-1.013h-1.111c-0.639,0-0.792,0.044-0.902,0.154
			s-0.132,0.242-0.132,0.517c0,0.309,0.021,0.474,0.109,0.562c0.089,0.088,0.21,0.099,0.43,0.099h0.473
			C83.239,70.11,83.469,70.078,84.02,69.792z"/>
		<path fill="#FFFFFF" d="M88.342,65.248l1.342,3.895h0.1l1.11-3.895h1.761l-2.388,6.92c-0.241,0.671-0.648,0.913-1.463,0.913
			c-0.495,0-0.979-0.033-1.463-0.077v-1.276h1.133c0.154,0,0.22-0.055,0.275-0.209l0.109-0.318l-2.354-5.952H88.342z"/>
		<path fill="#FFFFFF" d="M99.817,71.067l-0.595,0.154c-0.264,0.066-0.715,0.132-1.167,0.132c-0.572,0-0.88-0.121-1.089-0.33
			c-0.198-0.197-0.275-0.473-0.275-1.089v-3.366h-0.935v-1.32h0.935v-1.507h1.694v1.507h1.442v1.32h-1.442v2.915
			c0,0.265,0.022,0.353,0.077,0.418c0.055,0.044,0.165,0.066,0.44,0.066h0.914V71.067z"/>
		<path fill="#FFFFFF" d="M101.367,70.925c-0.396-0.396-0.55-0.946-0.55-2.651c0-1.716,0.154-2.255,0.55-2.662
			c0.253-0.265,0.583-0.363,1.199-0.363h2.058c0.616,0,0.935,0.099,1.199,0.363c0.396,0.407,0.55,0.946,0.55,2.662
			s-0.154,2.255-0.55,2.651c-0.265,0.275-0.583,0.374-1.199,0.374h-2.058C101.95,71.299,101.63,71.2,101.367,70.925z
			 M102.632,69.857c0.065,0.088,0.153,0.11,0.439,0.11h1.045c0.286,0,0.375-0.033,0.44-0.11c0.088-0.088,0.144-0.286,0.144-1.584
			s-0.056-1.496-0.144-1.596c-0.065-0.076-0.154-0.099-0.44-0.099h-1.045c-0.286,0-0.374,0.022-0.439,0.099
			c-0.088,0.1-0.144,0.298-0.144,1.596S102.544,69.77,102.632,69.857z"/>
		<path fill="#FFFFFF" d="M114.722,63.598c0.78,0,1.144,0.088,1.419,0.353c0.407,0.374,0.604,0.836,0.627,2.178h-1.728
			c-0.021-0.77-0.143-0.924-0.242-1.012c-0.065-0.066-0.165-0.11-0.517-0.11h-1.441c-0.363,0-0.451,0.033-0.528,0.11
			c-0.109,0.099-0.264,0.439-0.264,2.332c0,1.881,0.154,2.233,0.264,2.344c0.077,0.065,0.165,0.099,0.528,0.099h1.475
			c0.341,0.011,0.439-0.033,0.517-0.099c0.1-0.1,0.253-0.396,0.253-1.134v-0.22h-1.727v-1.32h3.477v0.957
			c0,1.771-0.286,2.432-0.716,2.839c-0.286,0.274-0.682,0.385-1.396,0.385h-2.366c-0.759,0-1.11-0.11-1.386-0.374
			c-0.44-0.418-0.759-1.122-0.759-3.477c0-2.365,0.318-3.069,0.759-3.477c0.275-0.264,0.627-0.374,1.386-0.374H114.722z"/>
		<path fill="#FFFFFF" d="M119.615,68.658c0.012,0.957,0.077,1.21,0.144,1.287c0.077,0.088,0.253,0.11,0.539,0.11h1.023
			c0.341,0,0.429-0.033,0.495-0.11c0.055-0.065,0.076-0.23,0.088-0.66h1.551c-0.011,0.902-0.11,1.364-0.407,1.661
			c-0.187,0.188-0.429,0.353-1.078,0.353h-2.244c-0.616,0-0.936-0.099-1.199-0.374c-0.396-0.396-0.55-0.869-0.55-2.651
			s0.154-2.255,0.55-2.662c0.253-0.265,0.583-0.363,1.199-0.363h2.046c0.616,0,0.946,0.099,1.199,0.363
			c0.396,0.396,0.484,0.869,0.484,2.607v0.197c0,0.177-0.044,0.242-0.242,0.242H119.615z M119.615,67.712h2.233
			c0-0.813-0.055-1.034-0.132-1.122c-0.065-0.065-0.165-0.099-0.506-0.099h-0.913c-0.286,0-0.462,0.021-0.539,0.11
			C119.682,66.678,119.627,66.865,119.615,67.712z"/>
		<path fill="#FFFFFF" d="M124.753,71.299v-6.051h1.683v0.803c0.781-0.704,1.023-0.813,1.585-0.813h0.736
			c0.518,0,0.848,0.109,1.079,0.341c0.253,0.242,0.352,0.561,0.352,1.452v4.269h-1.684v-4.07c0-0.253-0.044-0.396-0.132-0.495
			c-0.099-0.1-0.209-0.132-0.506-0.132h-0.473c-0.286,0-0.551,0.065-0.958,0.253v4.444H124.753z"/>
		<path fill="#FFFFFF" d="M133.112,68.658c0.012,0.957,0.077,1.21,0.144,1.287c0.077,0.088,0.253,0.11,0.539,0.11h1.023
			c0.341,0,0.429-0.033,0.495-0.11c0.055-0.065,0.076-0.23,0.088-0.66h1.551c-0.011,0.902-0.11,1.364-0.407,1.661
			c-0.187,0.188-0.429,0.353-1.078,0.353h-2.244c-0.616,0-0.936-0.099-1.199-0.374c-0.396-0.396-0.55-0.869-0.55-2.651
			s0.154-2.255,0.55-2.662c0.253-0.265,0.583-0.363,1.199-0.363h2.046c0.616,0,0.946,0.099,1.199,0.363
			c0.396,0.396,0.484,0.869,0.484,2.607v0.197c0,0.177-0.044,0.242-0.242,0.242H133.112z M133.112,67.712h2.233
			c0-0.813-0.055-1.034-0.132-1.122c-0.065-0.065-0.165-0.099-0.506-0.099h-0.913c-0.286,0-0.462,0.021-0.539,0.11
			C133.179,66.678,133.124,66.865,133.112,67.712z"/>
		<path fill="#FFFFFF" d="M141.804,71.067l-0.595,0.154c-0.264,0.066-0.715,0.132-1.166,0.132c-0.572,0-0.88-0.121-1.089-0.33
			c-0.198-0.197-0.275-0.473-0.275-1.089v-3.366h-0.935v-1.32h0.935v-1.507h1.694v1.507h1.441v1.32h-1.441v2.915
			c0,0.265,0.022,0.353,0.077,0.418c0.055,0.044,0.165,0.066,0.44,0.066h0.913V71.067z"/>
		<path fill="#FFFFFF" d="M144.762,64.412h-1.826V62.96h1.826V64.412z M144.685,71.299h-1.661v-6.051h1.661V71.299z"/>
		<path fill="#FFFFFF" d="M151.274,68.988c0,1.199-0.089,1.629-0.407,1.958c-0.231,0.242-0.518,0.353-1.101,0.353h-2.035
			c-0.616,0-0.936-0.099-1.199-0.374c-0.396-0.396-0.55-0.946-0.55-2.651c0-1.716,0.154-2.255,0.55-2.662
			c0.253-0.265,0.583-0.363,1.199-0.363h2.024c0.594,0,0.869,0.099,1.1,0.341c0.319,0.319,0.419,0.771,0.407,1.882h-1.562
			c-0.022-0.616-0.056-0.737-0.11-0.793c-0.066-0.076-0.154-0.099-0.396-0.099h-0.957c-0.286,0-0.374,0.022-0.439,0.099
			c-0.088,0.1-0.144,0.298-0.144,1.596s0.056,1.496,0.144,1.584c0.065,0.088,0.153,0.11,0.439,0.11h0.969
			c0.23,0,0.33-0.022,0.406-0.1c0.066-0.065,0.089-0.241,0.1-0.88H151.274z"/>
		<path fill="#FFFFFF" d="M159.458,68.537c-0.132-0.109-0.286-0.153-0.748-0.153h-1.65v2.915h-1.793v-7.701h4.532
			c0.639,0,1.034,0.088,1.299,0.353c0.318,0.318,0.495,0.726,0.495,1.837c0,1.386-0.396,1.793-1.287,1.947v0.021
			c0.792,0.165,1.177,0.386,1.21,1.508c0.033,0.913,0.077,1.617,0.121,2.035h-1.815c-0.077-0.517-0.121-1.145-0.144-1.914
			C159.667,68.79,159.59,68.658,159.458,68.537z M158.974,67.052c0.374,0,0.484-0.044,0.551-0.099
			c0.109-0.11,0.209-0.319,0.209-0.946c0-0.616-0.1-0.825-0.209-0.924c-0.066-0.055-0.177-0.088-0.551-0.088h-1.914v2.057H158.974z"
			/>
		<path fill="#FFFFFF" d="M164.528,68.658c0.012,0.957,0.077,1.21,0.144,1.287c0.077,0.088,0.253,0.11,0.539,0.11h1.023
			c0.341,0,0.429-0.033,0.495-0.11c0.055-0.065,0.076-0.23,0.088-0.66h1.551c-0.011,0.902-0.11,1.364-0.407,1.661
			c-0.187,0.188-0.429,0.353-1.078,0.353h-2.244c-0.616,0-0.936-0.099-1.199-0.374c-0.396-0.396-0.55-0.869-0.55-2.651
			s0.154-2.255,0.55-2.662c0.253-0.265,0.583-0.363,1.199-0.363h2.046c0.616,0,0.946,0.099,1.199,0.363
			c0.396,0.396,0.484,0.869,0.484,2.607v0.197c0,0.177-0.044,0.242-0.242,0.242H164.528z M164.528,67.712h2.233
			c0-0.813-0.055-1.034-0.132-1.122c-0.065-0.065-0.165-0.099-0.506-0.099h-0.913c-0.286,0-0.462,0.021-0.539,0.11
			C164.595,66.678,164.54,66.865,164.528,67.712z"/>
		<path fill="#FFFFFF" d="M174.329,71.035c-0.187,0.187-0.45,0.264-0.891,0.264h-2.553c-0.539,0-0.869-0.088-1.056-0.286
			c-0.231-0.242-0.341-0.561-0.363-1.639h1.496c0.011,0.45,0.033,0.55,0.088,0.615c0.044,0.056,0.11,0.077,0.319,0.077h1.419
			c0.209,0,0.297-0.033,0.341-0.077c0.045-0.044,0.066-0.132,0.066-0.462c0-0.286-0.021-0.385-0.088-0.439
			c-0.055-0.056-0.132-0.089-0.407-0.121l-1.969-0.221c-0.474-0.055-0.704-0.143-0.881-0.318c-0.242-0.242-0.308-0.528-0.308-1.376
			c0-0.847,0.176-1.287,0.418-1.528c0.187-0.188,0.429-0.275,0.891-0.275h2.41c0.539,0,0.857,0.088,1.034,0.264
			c0.241,0.242,0.33,0.595,0.352,1.617h-1.496c-0.011-0.451-0.044-0.506-0.088-0.571c-0.044-0.056-0.121-0.077-0.319-0.077h-1.254
			c-0.198,0-0.275,0.011-0.33,0.065c-0.055,0.056-0.088,0.132-0.088,0.418c0,0.275,0.021,0.374,0.099,0.44
			c0.066,0.055,0.132,0.077,0.396,0.11l2.035,0.23c0.462,0.044,0.693,0.144,0.858,0.309c0.22,0.22,0.286,0.616,0.286,1.396
			C174.748,70.353,174.583,70.782,174.329,71.035z"/>
		<path fill="#FFFFFF" d="M176.397,70.925c-0.396-0.396-0.55-0.946-0.55-2.651c0-1.716,0.154-2.255,0.55-2.662
			c0.253-0.265,0.583-0.363,1.199-0.363h2.058c0.616,0,0.935,0.099,1.199,0.363c0.396,0.407,0.55,0.946,0.55,2.662
			s-0.154,2.255-0.55,2.651c-0.265,0.275-0.583,0.374-1.199,0.374h-2.058C176.98,71.299,176.661,71.2,176.397,70.925z
			 M177.663,69.857c0.065,0.088,0.153,0.11,0.439,0.11h1.046c0.285,0,0.374-0.033,0.439-0.11c0.088-0.088,0.144-0.286,0.144-1.584
			s-0.056-1.496-0.144-1.596c-0.065-0.076-0.154-0.099-0.439-0.099h-1.046c-0.286,0-0.374,0.022-0.439,0.099
			c-0.088,0.1-0.144,0.298-0.144,1.596S177.575,69.77,177.663,69.857z"/>
		<path fill="#FFFFFF" d="M188.135,65.248v6.051h-1.694v-0.803c-0.771,0.692-1.023,0.813-1.573,0.813h-0.737
			c-0.528,0-0.858-0.109-1.089-0.341c-0.242-0.253-0.353-0.572-0.353-1.452v-4.269h1.694v4.081c0,0.254,0.033,0.396,0.132,0.495
			c0.1,0.1,0.198,0.133,0.495,0.133h0.484c0.286,0,0.539-0.066,0.946-0.242v-4.467H188.135z"/>
		<path fill="#FFFFFF" d="M189.597,71.299v-6.051h1.683v0.924c0.628-0.648,0.946-0.935,1.431-0.935h0.649v1.661h-0.781
			c-0.462,0-0.814,0.044-1.299,0.242v4.158H189.597z"/>
		<path fill="#FFFFFF" d="M199.465,68.988c0,1.199-0.089,1.629-0.407,1.958c-0.231,0.242-0.518,0.353-1.101,0.353h-2.035
			c-0.616,0-0.936-0.099-1.199-0.374c-0.396-0.396-0.55-0.946-0.55-2.651c0-1.716,0.154-2.255,0.55-2.662
			c0.253-0.265,0.583-0.363,1.199-0.363h2.024c0.594,0,0.869,0.099,1.1,0.341c0.319,0.319,0.419,0.771,0.407,1.882h-1.562
			c-0.022-0.616-0.056-0.737-0.11-0.793c-0.066-0.076-0.154-0.099-0.396-0.099h-0.957c-0.286,0-0.374,0.022-0.439,0.099
			c-0.088,0.1-0.144,0.298-0.144,1.596s0.056,1.496,0.144,1.584c0.065,0.088,0.153,0.11,0.439,0.11h0.969
			c0.23,0,0.33-0.022,0.406-0.1c0.066-0.065,0.089-0.241,0.1-0.88H199.465z"/>
		<path fill="#FFFFFF" d="M202.181,68.658c0.012,0.957,0.077,1.21,0.144,1.287c0.077,0.088,0.253,0.11,0.539,0.11h1.023
			c0.341,0,0.429-0.033,0.495-0.11c0.055-0.065,0.076-0.23,0.088-0.66h1.551c-0.011,0.902-0.11,1.364-0.407,1.661
			c-0.187,0.188-0.429,0.353-1.078,0.353h-2.244c-0.616,0-0.936-0.099-1.199-0.374c-0.396-0.396-0.55-0.869-0.55-2.651
			s0.154-2.255,0.55-2.662c0.253-0.265,0.583-0.363,1.199-0.363h2.046c0.616,0,0.946,0.099,1.199,0.363
			c0.396,0.396,0.484,0.869,0.484,2.607v0.197c0,0.177-0.044,0.242-0.242,0.242H202.181z M202.181,67.712h2.233
			c0-0.813-0.055-1.034-0.132-1.122c-0.065-0.065-0.165-0.099-0.506-0.099h-0.913c-0.286,0-0.462,0.021-0.539,0.11
			C202.247,66.678,202.192,66.865,202.181,67.712z"/>
		<path fill="#FFFFFF" d="M211.982,71.035c-0.187,0.187-0.45,0.264-0.891,0.264h-2.553c-0.539,0-0.869-0.088-1.056-0.286
			c-0.231-0.242-0.341-0.561-0.363-1.639h1.496c0.011,0.45,0.033,0.55,0.088,0.615c0.044,0.056,0.11,0.077,0.319,0.077h1.419
			c0.209,0,0.297-0.033,0.341-0.077c0.045-0.044,0.066-0.132,0.066-0.462c0-0.286-0.021-0.385-0.088-0.439
			c-0.055-0.056-0.132-0.089-0.407-0.121l-1.969-0.221c-0.474-0.055-0.704-0.143-0.881-0.318c-0.242-0.242-0.308-0.528-0.308-1.376
			c0-0.847,0.176-1.287,0.418-1.528c0.187-0.188,0.429-0.275,0.891-0.275h2.41c0.539,0,0.857,0.088,1.034,0.264
			c0.241,0.242,0.33,0.595,0.352,1.617h-1.496c-0.011-0.451-0.044-0.506-0.088-0.571c-0.044-0.056-0.121-0.077-0.319-0.077h-1.254
			c-0.198,0-0.275,0.011-0.33,0.065c-0.055,0.056-0.088,0.132-0.088,0.418c0,0.275,0.021,0.374,0.099,0.44
			c0.066,0.055,0.132,0.077,0.396,0.11l2.035,0.23c0.462,0.044,0.693,0.144,0.858,0.309c0.22,0.22,0.286,0.616,0.286,1.396
			C212.401,70.353,212.236,70.782,211.982,71.035z"/>
	</g>
</g>
</svg>
